<?xml version="1.0" standalone="no"?>
<!DOCTYPE svg PUBLIC "-//W3C//DTD SVG 20010904//EN"
 "http://www.w3.org/TR/2001/REC-SVG-20010904/DTD/svg10.dtd">
<svg version="1.0" xmlns="http://www.w3.org/2000/svg"
 width="833.000000pt" height="833.000000pt" viewBox="0 0 833.000000 833.000000"
 preserveAspectRatio="xMidYMid meet">
<metadata>
Created by potrace 1.11, written by Peter Selinger 2001-2013
</metadata>
<g transform="translate(0.000000,833.000000) scale(0.100000,-0.100000)"
fill="#000000" stroke="none">
<path d="M3968 8195 c-2 -1 -52 -6 -113 -9 -60 -4 -121 -9 -135 -11 -14 -1
-50 -6 -80 -10 -63 -7 -138 -19 -225 -35 -33 -7 -70 -13 -82 -15 -11 -2 -32
-7 -45 -11 -12 -4 -27 -8 -33 -9 -38 -3 -96 -18 -101 -26 -3 -5 -9 -7 -12 -5
-20 12 -353 -97 -550 -180 -122 -51 -316 -145 -323 -156 -3 -5 -9 -9 -13 -8
-10 2 -263 -141 -285 -161 -10 -9 -27 -20 -38 -23 -12 -4 -24 -14 -27 -22 -3
-8 -10 -12 -16 -9 -5 3 -10 1 -10 -4 0 -6 -5 -11 -11 -11 -7 0 -23 -12 -37
-27 -14 -16 -27 -26 -28 -23 -4 8 -134 -91 -134 -102 0 -6 -3 -8 -6 -5 -6 6
-43 -22 -138 -103 -131 -112 -346 -323 -346 -340 0 -6 -4 -8 -10 -5 -5 3 -10
3 -10 -2 0 -4 -15 -24 -33 -44 -33 -37 -98 -114 -129 -153 -10 -11 -21 -25
-26 -31 -4 -5 -28 -37 -52 -70 -25 -33 -48 -61 -52 -63 -5 -2 -8 -13 -8 -23 0
-11 -4 -18 -8 -15 -4 2 -21 -16 -37 -42 -16 -26 -35 -53 -42 -60 -7 -7 -13
-19 -13 -27 0 -7 -4 -15 -8 -17 -11 -4 -132 -204 -132 -217 0 -5 -4 -11 -9
-13 -4 -1 -45 -79 -90 -173 -45 -93 -88 -183 -96 -198 -8 -15 -10 -25 -4 -21
6 3 4 -4 -4 -17 -22 -34 -76 -177 -69 -183 3 -3 0 -6 -7 -6 -7 0 -10 -4 -6 -9
3 -5 0 -13 -6 -16 -5 -4 -8 -13 -5 -21 3 -8 1 -14 -5 -14 -6 0 -8 -4 -4 -9 3
-5 1 -12 -4 -15 -4 -3 -12 -20 -16 -38 -4 -18 -9 -37 -11 -43 -6 -19 -35 -120
-39 -135 -2 -8 -4 -15 -5 -15 -1 0 -3 -7 -5 -15 -1 -8 -8 -35 -15 -60 -7 -25
-14 -56 -16 -70 -3 -14 -9 -38 -14 -55 -8 -26 -15 -65 -26 -140 -1 -11 -3 -20
-4 -20 -1 0 -3 -9 -4 -20 -8 -52 -17 -112 -21 -135 -6 -31 -13 -105 -30 -295
-5 -64 -6 -433 0 -505 9 -116 16 -193 20 -223 2 -18 9 -68 15 -112 18 -125 49
-278 86 -422 33 -130 90 -319 102 -338 4 -5 7 -15 8 -21 12 -81 292 -666 342
-716 7 -7 12 -16 12 -20 0 -7 137 -221 162 -253 4 -5 49 -64 100 -130 51 -66
102 -130 113 -142 11 -12 31 -34 45 -50 80 -93 120 -133 131 -133 7 0 10 -3 6
-6 -8 -9 34 -54 51 -54 9 0 13 -3 9 -6 -6 -7 29 -42 134 -136 82 -74 104 -92
159 -137 25 -20 50 -40 57 -46 38 -34 178 -130 185 -127 4 1 8 -2 8 -7 0 -19
444 -287 490 -296 3 -1 39 -17 80 -37 161 -77 270 -122 270 -110 0 4 4 2 8 -4
10 -15 301 -115 406 -139 12 -3 76 -18 143 -34 67 -16 139 -32 160 -35 21 -3
76 -12 121 -20 46 -9 87 -15 90 -14 4 1 27 -2 52 -5 185 -29 574 -40 765 -23
39 3 99 8 135 11 36 3 76 7 90 10 14 3 46 8 72 10 26 2 60 6 75 9 40 9 73 15
108 21 17 3 41 8 55 10 14 3 34 7 45 9 97 20 381 98 420 116 11 5 36 13 55 18
19 5 82 28 140 51 117 46 113 45 225 97 44 20 86 38 94 40 8 1 18 9 22 16 5 7
9 10 9 5 0 -4 18 4 40 18 22 14 44 25 50 25 5 0 10 4 10 8 0 5 6 9 13 9 16 0
251 140 279 167 12 12 23 19 24 16 2 -3 14 5 28 17 14 13 26 21 26 18 0 -7
169 117 201 147 11 10 19 15 19 11 0 -3 9 4 20 17 11 13 20 20 20 17 0 -3 10
4 23 16 46 43 117 105 117 101 0 -2 33 28 73 67 39 39 73 69 73 67 1 -1 17 16
37 39 19 23 37 39 41 36 3 -4 6 -1 6 5 0 6 9 20 21 31 20 19 20 20 3 48 -10
15 -23 31 -29 35 -5 4 -6 8 -1 8 5 0 2 8 -7 18 -10 10 -15 21 -12 24 3 3 -1
11 -10 18 -8 7 -15 16 -15 21 0 5 -17 37 -38 71 -21 35 -41 71 -45 81 -3 9
-11 17 -17 17 -6 0 -9 4 -6 9 3 5 -4 20 -15 35 -11 14 -18 26 -15 26 3 0 -6
16 -19 36 -13 19 -27 44 -30 55 -4 10 -11 19 -16 19 -5 0 -9 6 -9 13 -1 6 -16
37 -35 67 -19 30 -39 64 -45 75 -16 31 -134 227 -275 460 -11 18 -40 66 -65
106 -24 41 -50 80 -57 87 -7 7 -13 20 -13 28 0 8 -4 14 -9 14 -5 0 -14 13 -21
29 -6 16 -20 38 -31 50 -11 12 -18 21 -15 21 5 0 -95 155 -114 177 -5 7 -10
14 -10 17 0 9 -64 101 -72 104 -4 2 -8 8 -8 13 0 12 -101 163 -112 167 -4 2
-8 8 -8 14 0 6 -19 38 -43 72 -24 33 -65 93 -92 131 -26 39 -53 73 -59 77 -6
4 -7 8 -3 8 4 0 -4 12 -18 27 -14 15 -25 33 -25 40 0 7 -4 13 -8 13 -4 0 -15
12 -24 28 -9 15 -26 38 -37 52 -44 56 -91 121 -91 126 0 3 -6 11 -12 18 -7 7
-22 25 -33 40 -11 15 -27 36 -35 46 -8 10 -22 28 -30 40 -8 13 -24 33 -35 46
-40 45 -55 64 -55 70 0 3 -6 11 -12 18 -7 7 -24 28 -38 46 -14 19 -35 45 -47
59 -13 14 -26 31 -31 36 -28 37 -138 172 -147 181 -5 6 -28 32 -50 59 -22 26
-47 55 -55 64 -9 9 -43 47 -75 85 -89 103 -107 121 -116 119 -5 -2 -8 1 -6 5
4 16 -296 332 -315 332 -6 0 -9 3 -6 6 5 5 -78 88 -197 198 -22 21 -59 55 -82
77 -22 21 -46 39 -52 39 -6 0 -11 6 -11 13 0 13 -40 43 -53 39 -4 -1 -6 2 -5
6 2 5 -31 37 -72 71 -41 35 -84 70 -95 80 -64 54 -146 119 -175 141 -18 14
-46 35 -61 48 -15 12 -31 22 -36 22 -4 0 -14 9 -21 20 -7 11 -19 20 -27 20 -8
0 -15 5 -15 10 0 6 -6 10 -14 10 -8 0 -17 7 -20 16 -4 9 -9 14 -12 11 -4 -3
-15 4 -25 16 -10 12 -18 18 -19 13 0 -5 -8 0 -17 10 -10 11 -83 62 -163 114
-80 52 -148 99 -152 105 -5 7 -8 7 -8 0 0 -6 -3 -5 -8 1 -9 13 -208 134 -221
134 -5 0 -11 4 -13 9 -1 5 -50 34 -108 64 -96 51 -130 77 -100 77 7 0 26 -6
43 -14 18 -7 50 -20 72 -29 76 -29 270 -109 310 -126 22 -10 63 -29 90 -42 28
-12 53 -24 58 -25 4 -1 9 -3 12 -4 3 -1 8 -3 13 -4 11 -2 589 -291 647 -323
28 -15 53 -32 57 -38 4 -5 8 -6 8 -1 0 5 8 2 18 -6 9 -9 33 -23 52 -33 19 -10
98 -55 175 -102 77 -46 149 -89 160 -96 50 -29 100 -61 238 -151 81 -53 152
-96 158 -96 5 0 9 -4 9 -8 0 -4 33 -30 73 -56 39 -27 137 -97 217 -155 161
-117 152 -110 200 -151 19 -16 38 -30 42 -30 4 0 20 -11 35 -25 16 -13 82 -67
148 -120 66 -52 131 -105 145 -118 14 -12 48 -40 75 -62 26 -22 69 -59 94 -82
25 -23 57 -51 71 -63 75 -64 145 -127 159 -142 8 -10 21 -18 29 -18 7 0 11 -4
8 -9 -3 -5 10 -21 29 -35 48 -37 489 -479 600 -601 50 -54 105 -114 123 -132
17 -19 32 -38 32 -44 0 -6 5 -7 10 -4 6 3 10 1 10 -5 0 -6 10 -21 23 -34 27
-28 68 -75 122 -141 22 -26 49 -58 60 -69 11 -12 38 -44 59 -71 22 -28 44 -54
50 -60 6 -5 29 -34 51 -62 21 -29 43 -53 47 -53 4 0 8 -5 8 -10 0 -6 19 -34
43 -63 23 -29 53 -67 67 -86 14 -18 31 -39 38 -46 6 -8 12 -16 12 -19 0 -3 8
-14 18 -24 9 -11 26 -32 37 -47 11 -16 29 -40 40 -54 11 -14 33 -44 48 -67 15
-22 36 -50 47 -62 11 -12 20 -23 20 -26 0 -2 33 -51 73 -109 l73 -104 27 56
c15 31 27 62 27 69 0 6 5 12 10 12 6 0 10 8 10 18 0 10 4 22 8 28 11 12 75
175 75 192 0 6 4 12 7 12 7 0 21 44 25 75 0 6 6 19 12 31 7 11 14 32 17 47 2
14 9 34 14 44 6 10 10 21 10 26 1 4 8 33 17 65 17 56 21 73 31 121 3 14 7 28
9 31 2 4 7 22 10 41 3 19 12 61 20 94 7 33 16 80 20 105 3 25 8 52 10 60 10
41 29 189 42 340 10 109 10 562 0 660 -10 101 -17 159 -22 195 -3 17 -7 53
-10 80 -3 28 -8 57 -10 65 -2 8 -7 31 -10 50 -5 29 -36 171 -50 230 -45 191
-125 435 -191 585 -10 22 -19 45 -20 52 -3 16 -167 346 -211 423 -20 36 -40
67 -45 68 -4 2 -8 8 -8 14 0 13 -180 282 -191 286 -5 2 -9 9 -9 15 0 7 -10 23
-23 37 -12 14 -38 45 -57 70 -48 62 -70 89 -102 123 -16 17 -28 34 -28 38 0 5
-7 9 -16 9 -8 0 -13 4 -10 8 3 5 -56 71 -130 147 -73 76 -134 136 -134 132 0
-3 -21 17 -47 44 -27 27 -54 49 -60 49 -7 0 -13 4 -13 8 0 5 -30 33 -67 63
-37 30 -75 60 -83 66 -65 54 -136 101 -144 96 -6 -4 -8 -3 -4 2 7 8 -64 65
-81 65 -5 0 -11 3 -13 8 -4 10 -140 96 -248 156 -47 26 -92 52 -100 56 -21 13
-241 120 -245 120 -2 0 -32 13 -67 29 -35 15 -88 37 -118 49 -30 11 -73 27
-95 35 -133 50 -346 113 -410 122 -11 2 -20 4 -20 5 0 6 -310 68 -377 75 -31
3 -67 8 -80 10 -13 3 -48 7 -78 10 -30 3 -77 8 -105 11 -53 6 -502 14 -507 9z
m517 -1138 c17 -3 57 -8 90 -12 33 -4 79 -11 103 -16 23 -5 59 -12 80 -15 47
-7 184 -41 243 -60 25 -8 54 -17 65 -19 34 -8 127 -42 219 -79 253 -105 534
-269 720 -420 27 -23 58 -48 69 -56 28 -22 125 -110 165 -150 19 -19 40 -33
46 -32 5 2 7 1 3 -3 -4 -4 -2 -13 5 -20 157 -163 347 -411 417 -545 7 -14 16
-27 19 -30 4 -3 15 -24 25 -47 11 -24 23 -43 28 -43 4 0 7 -3 6 -7 -1 -5 6
-22 15 -40 31 -59 18 -58 -77 5 -40 26 -81 52 -92 59 -104 63 -256 154 -284
171 -19 10 -79 45 -134 76 -54 31 -105 56 -112 56 -8 0 -14 4 -14 9 0 11 -575
300 -770 386 -85 37 -182 80 -215 95 -33 15 -71 31 -85 35 -14 4 -29 11 -35
15 -5 4 -91 39 -190 77 -269 106 -319 125 -330 127 -5 1 -14 4 -20 7 -5 4 -35
14 -65 24 -30 10 -59 20 -65 24 -5 3 -14 6 -20 8 -5 1 -71 23 -145 48 -74 26
-142 48 -150 50 -8 2 -35 11 -60 20 -38 14 -315 99 -360 110 -112 29 -250 71
-250 76 0 13 298 85 390 95 25 2 56 7 70 9 14 3 59 8 100 11 41 4 77 8 79 10
5 5 477 -4 516 -9z m-2811 -1579 c39 -28 76 -57 82 -62 7 -6 25 -21 40 -33 16
-12 54 -42 85 -67 31 -25 59 -43 63 -41 3 3 4 2 1 -1 -2 -4 12 -20 33 -36 47
-38 131 -109 148 -125 7 -7 15 -13 17 -13 3 0 31 -24 63 -54 32 -30 61 -53 65
-50 4 2 10 -5 14 -16 3 -11 12 -20 18 -20 7 0 18 -9 25 -20 7 -11 20 -20 29
-20 9 0 14 -3 10 -6 -6 -6 -4 -9 113 -114 40 -36 122 -113 182 -172 61 -60
114 -108 119 -108 5 0 9 -4 9 -8 0 -13 174 -187 183 -184 5 1 6 -1 3 -6 -3 -5
10 -23 29 -39 19 -17 32 -33 29 -36 -3 -3 4 -8 15 -12 12 -3 21 -10 21 -15 0
-5 27 -37 60 -71 33 -34 60 -63 60 -65 0 -2 15 -19 33 -37 33 -35 67 -74 124
-139 17 -20 34 -34 38 -30 4 4 5 2 3 -4 -1 -6 20 -37 48 -70 29 -32 80 -93
114 -134 34 -41 66 -76 71 -78 5 -2 9 -8 9 -13 0 -6 9 -20 21 -32 11 -12 45
-55 76 -94 31 -40 60 -73 64 -73 5 0 9 -5 9 -11 0 -9 89 -129 110 -149 3 -3
16 -22 30 -42 14 -21 28 -38 33 -38 4 0 7 -6 7 -14 0 -8 7 -17 16 -20 9 -4 14
-9 11 -12 -3 -4 0 -13 8 -20 8 -8 33 -41 56 -74 23 -33 46 -60 51 -60 5 0 6
-5 3 -10 -3 -5 -1 -10 4 -10 6 0 11 -6 11 -13 0 -7 15 -30 34 -50 18 -20 31
-37 29 -37 -3 0 6 -15 21 -34 14 -19 26 -40 26 -46 0 -6 5 -8 10 -5 6 3 10 1
10 -4 0 -12 218 -344 244 -373 9 -10 15 -21 15 -24 -1 -3 3 -13 9 -23 39 -56
92 -143 92 -151 0 -5 8 -14 18 -19 9 -6 14 -11 9 -11 -8 0 42 -81 58 -92 5 -4
6 -8 2 -8 -5 0 1 -13 12 -29 12 -16 21 -32 21 -35 0 -4 5 -12 11 -19 10 -12
51 -77 55 -87 1 -3 5 -15 9 -27 4 -13 11 -23 15 -23 5 0 13 -13 19 -30 5 -16
15 -30 20 -30 6 0 10 -3 9 -7 -3 -16 33 -83 44 -83 6 0 9 -3 5 -6 -3 -3 7 -27
21 -53 15 -26 38 -68 52 -94 13 -26 28 -47 32 -47 5 0 8 -7 8 -14 0 -8 11 -36
25 -63 l26 -47 -23 -9 c-29 -11 -185 -55 -218 -62 -24 -5 -41 -8 -92 -20 -13
-3 -39 -8 -58 -11 -19 -2 -46 -7 -60 -9 -226 -42 -582 -50 -810 -20 -14 1 -47
6 -75 9 -27 4 -57 8 -65 10 -8 1 -35 6 -60 10 -62 10 -73 12 -90 18 -15 5
-207 55 -245 63 -11 3 -67 23 -125 46 -58 22 -109 41 -115 43 -49 12 -269 124
-413 210 -100 59 -276 186 -384 276 -96 80 -301 293 -386 400 -46 58 -90 113
-98 123 -8 9 -14 22 -14 27 0 6 -4 10 -9 10 -5 0 -14 14 -21 30 -7 17 -16 30
-20 30 -4 0 -13 14 -20 30 -7 17 -16 30 -21 30 -5 0 -9 6 -9 14 0 8 -6 21 -13
28 -35 37 -170 313 -226 463 -13 33 -28 74 -34 90 -6 17 -12 35 -14 40 -1 6
-11 42 -23 80 -20 67 -65 251 -74 304 -2 15 -5 28 -6 31 -1 3 -2 8 -1 12 0 4
-4 31 -9 60 -17 97 -19 122 -27 248 -12 217 -4 450 21 595 3 17 8 50 11 75 17
124 81 371 133 510 3 8 6 18 7 23 2 4 4 9 5 12 1 3 3 8 4 13 1 4 8 18 16 32 7
14 12 25 11 25 -4 0 14 45 47 118 17 37 28 67 24 67 -4 0 -2 4 4 8 6 4 23 31
38 60 14 28 29 52 32 52 4 0 38 -23 78 -52z"/>
</g>
</svg>
